Chapitre 3 Distribution des salaires des Belges: probabilités dans une distribution normale | Introduction à R et aux statistiques en sciences sociales
…
3.1 Charger des données au format R (.RDS)

Pour commencer nos analyses, il faut charger les données. Dans le chapitre précédent, nous avons vu comment importer des données depuis le format SPSS (suffixe .sav) et comment les enregistrer au format “RDS” de R. Nous avions enregistré la base de données de ’l’Enquête sociale européenne/European social survey (ESS) “ESS 9” sous le nom “ESS9.RDS”. Nous allons à présent chargé ce fichier pour continuer nos analyses avec cette base de données.

Assurez-vous que le fichier “ESS9.RDS” se trouve dans votre espace de travail. Si vous ne l’avez pas, effectuez les étapes décrites dans le chapitre précédent16. Chargez donc le fichier à l’aide de la commande readRDS():

ESS9<-readRDS("ESS9.RDS")#Vous nommez la base de données ESS9

Lorsque vous chargez une base de données (ou un autre objet R) à l’aide de la fonction “readRDS()”, il faut lui attribuer un nom sous lequel le charger dans l’espace de travail. Ici nous le faisons en plaçant une flèche (<-) à gauche de la fonction et en indiquant le nom de l’objet au bout de cette flèche: ESS9. Si vous ne nommez pas l’objet, et écrivez simplement la commande sans lui attribuer de nom, la base de données apparaîtra certes dans la sortie de la console, mais ne sera pas enregistré dans l’environnement global. Vous ne pourrez alors pas faire d’analyse avec cette base de données. Assurez-vous que l’objet est bien chargé en vérifiant s’il apparaît dans l’onglet “Environment” à droite dans RStudio. Par ailleurs, faites vous afficher l’objet en exécutant le code suivant:

ESS9 #En exécutant le nom de l'objet, il s'affiche

## # A tibble: 49,519 × 572
##    name     essro…¹ edition prodd…²  idno cntry    dweight pspwght pweight anwei…³ nwspol netus…⁴ netustm ppltrst pplfair pplhlp polintr pspps…⁵ actro…⁶ psppi…⁷ cptpp…⁸ trstprl trstlgl  trstplc 
##    <chr>      <dbl> <chr>   <chr>   <dbl> <chr+lb>   <dbl>   <dbl>   <dbl>   <dbl> <dbl+> <dbl+l> <dbl+l> <dbl+l> <dbl+l> <dbl+> <dbl+l> <dbl+l> <dbl+l> <dbl+l> <dbl+l> <dbl+l> <dbl+lb> <dbl+lb>
##  1 ESS9e03…       9 3.1     17.02.…    27 AT [Aus…   0.581   0.218   0.302  0.0659 60     5 [Eve… 180     2 [2]   2 [2]   2 [2]  3 [Har… 3 [Som… 2 [A l… 2 [Ver… 2 [A l… 5 [5]   10 [Com… 10 [Com…
##  2 ESS9e03…       9 3.1     17.02.…   137 AT [Aus…   1.06    0.413   0.302  0.125  10     5 [Eve…  20     7 [7]   8 [8]   7 [7]  2 [Qui… 3 [Som… 2 [A l… 3 [Som… 2 [A l… 7 [7]    8 [8]    8 [8]  
##  3 ESS9e03…       9 3.1     17.02.…   194 AT [Aus…   1.38    2.27    0.302  0.686  60     4 [Mos… 180     5 [5]   7 [7]   7 [7]  4 [Not… 2 [Ver… 1 [Not… 3 [Som… 2 [A l… 6 [6]    8 [8]    8 [8]  
##  4 ESS9e03…       9 3.1     17.02.…   208 AT [Aus…   0.993   0.386   0.302  0.117  45     5 [Eve… 120     3 [3]   9 [9]   5 [5]  3 [Har… 2 [Ver… 2 [A l… 3 [Som… 1 [Not… 0 [No …  5 [5]    8 [8]  
##  5 ESS9e03…       9 3.1     17.02.…   220 AT [Aus…   0.377   1.03    0.302  0.312  30     1 [Nev…  NA     5 [5]   8 [8]   4 [4]  2 [Qui… 1 [Not… 1 [Not… 1 [Not… 3 [Qui… 7 [7]    8 [8]    8 [8]  
##  6 ESS9e03…       9 3.1     17.02.…   254 AT [Aus…   1.48    0.576   0.302  0.174  45     2 [Onl…  NA     8 [8]   7 [7]   6 [6]  2 [Qui… 2 [Ver… 2 [A l… 3 [Som… 2 [A l… 6 [6]    5 [5]    7 [7]  
##  7 ESS9e03…       9 3.1     17.02.…   290 AT [Aus…   0.992   0.721   0.302  0.218  60     1 [Nev…  NA     6 [6]   1 [1]   3 [3]  4 [Not… 2 [Ver… 2 [A l… 3 [Som… 2 [A l… 0 [No …  5 [5]    5 [5]  
##  8 ESS9e03…       9 3.1     17.02.…   301 AT [Aus…   0.310   0.130   0.302  0.0393 30     1 [Nev…  NA     7 [7]   7 [7]   7 [7]  3 [Har… 1 [Not… 1 [Not… 1 [Not… 2 [A l… 5 [5]    7 [7]    7 [7]  
##  9 ESS9e03…       9 3.1     17.02.…   305 AT [Aus…   1.23    1.77    0.302  0.535  30     5 [Eve… 120     2 [2]   9 [9]   9 [9]  3 [Har… 1 [Not… 1 [Not… 1 [Not… 4 [Ver… 1 [1]   10 [Com… 10 [Com…
## 10 ESS9e03…       9 3.1     17.02.…   400 AT [Aus…   0.459   0.743   0.302  0.224  25     4 [Mos… 360     7 [7]   4 [4]   4 [4]  4 [Not… 2 [Ver… 2 [A l… 2 [Ver… 1 [Not… 3 [3]    5 [5]    5 [5]  
## # … with 49,509 more rows, 548 more variables: trstplt <dbl+lbl>, trstprt <dbl+lbl>, trstep <dbl+lbl>, trstun <dbl+lbl>, vote <dbl+lbl>, prtvtcat <dbl+lbl>, prtvtdbe <dbl+lbl>,
## #   prtvtdbg <dbl+lbl>, prtvtgch <dbl+lbl>, prtvtbcy <dbl+lbl>, prtvtecz <dbl+lbl>, prtvede1 <dbl+lbl>, prtvede2 <dbl+lbl>, prtvtddk <dbl+lbl>, prtvtgee <dbl+lbl>, prtvtees <dbl+lbl>,
## #   prtvtdfi <dbl+lbl>, prtvtdfr <dbl+lbl>, prtvtcgb <dbl+lbl>, prtvtahr <dbl+lbl>, prtvtfhu <dbl+lbl>, prtvtcie <dbl+lbl>, prtvtcis <dbl+lbl>, prtvtcit <dbl+lbl>, prtvblt1 <dbl+lbl>,
## #   prtvblt2 <dbl+lbl>, prtvblt3 <dbl+lbl>, prtvtalv <dbl+lbl>, prtvtme <dbl+lbl>, prtvtgnl <dbl+lbl>, prtvtbno <dbl+lbl>, prtvtdpl <dbl+lbl>, prtvtcpt <dbl+lbl>, prtvtrs <dbl+lbl>,
## #   prtvtcse <dbl+lbl>, prtvtfsi <dbl+lbl>, prtvtdsk <dbl+lbl>, contplt <dbl+lbl>, wrkprty <dbl+lbl>, wrkorg <dbl+lbl>, badge <dbl+lbl>, sgnptit <dbl+lbl>, pbldmn <dbl+lbl>, bctprd <dbl+lbl>,
## #   pstplonl <dbl+lbl>, clsprty <dbl+lbl>, prtcldat <dbl+lbl>, prtcldbe <dbl+lbl>, prtcldbg <dbl+lbl>, prtclgch <dbl+lbl>, prtclbcy <dbl+lbl>, prtclecz <dbl+lbl>, prtclede <dbl+lbl>,
## #   prtclddk <dbl+lbl>, prtclgee <dbl+lbl>, prtclfes <dbl+lbl>, prtclefi <dbl+lbl>, prtclffr <dbl+lbl>, prtclcgb <dbl+lbl>, prtclahr <dbl+lbl>, prtclghu <dbl+lbl>, prtcleie <dbl+lbl>, …
…
