Chapitre 2 Prise en main de R | Introduction à R et aux statistiques en sciences sociales
…
Avec cette commande, vous avez chargé la base de données dans l’environnement de R. Vous l’avez nommé “ESS9”15. Elle apparaît dans l’onglet “Environement” en haut à droite de RStudio. Si vous utilisez le système d’exploitation Windows, vous pouvez aussi utiliser la commande choose.files à l’intérieur de la fonction read_sav. Lorsque vous exécutez cette commande, une fenêtre s’ouvre vous permettant de choisir manuellement le fichier à charger:

ESS9<-read_sav(choose.files())

Le fichier étant chargé dans l’environnement, vous pouvez l’étudier et le manipuler dans R. Sélectionnez l’objet et exécuter-le:

ESS9

Dans votre console s’affichera alors un extrait de la base de données:

## # A tibble: 49,519 × 572
##    name  essro…¹ edition prodd…²  idno cntry    dweight pspwght pweight anwei…³ nwspol netus…⁴ netustm ppltrst pplfair pplhlp polintr pspps…⁵ actro…⁶ psppi…⁷ cptpp…⁸ trstprl
##    <chr>   <dbl> <chr>   <chr>   <dbl> <chr+lb>   <dbl>   <dbl>   <dbl>   <dbl> <dbl+> <dbl+l> <dbl+l> <dbl+l> <dbl+l> <dbl+> <dbl+l> <dbl+l> <dbl+l> <dbl+l> <dbl+l> <dbl+l>
##  1 ESS9…       9 3.1     17.02.…    27 AT [Aus…   0.581   0.218   0.302  0.0659 60     5 [Eve… 180     2 [2]   2 [2]   2 [2]  3 [Har… 3 [Som… 2 [A l… 2 [Ver… 2 [A l… 5 [5]  
##  2 ESS9…       9 3.1     17.02.…   137 AT [Aus…   1.06    0.413   0.302  0.125  10     5 [Eve…  20     7 [7]   8 [8]   7 [7]  2 [Qui… 3 [Som… 2 [A l… 3 [Som… 2 [A l… 7 [7]  
##  3 ESS9…       9 3.1     17.02.…   194 AT [Aus…   1.38    2.27    0.302  0.686  60     4 [Mos… 180     5 [5]   7 [7]   7 [7]  4 [Not… 2 [Ver… 1 [Not… 3 [Som… 2 [A l… 6 [6]  
##  4 ESS9…       9 3.1     17.02.…   208 AT [Aus…   0.993   0.386   0.302  0.117  45     5 [Eve… 120     3 [3]   9 [9]   5 [5]  3 [Har… 2 [Ver… 2 [A l… 3 [Som… 1 [Not… 0 [No …
##  5 ESS9…       9 3.1     17.02.…   220 AT [Aus…   0.377   1.03    0.302  0.312  30     1 [Nev…  NA     5 [5]   8 [8]   4 [4]  2 [Qui… 1 [Not… 1 [Not… 1 [Not… 3 [Qui… 7 [7]  
##  6 ESS9…       9 3.1     17.02.…   254 AT [Aus…   1.48    0.576   0.302  0.174  45     2 [Onl…  NA     8 [8]   7 [7]   6 [6]  2 [Qui… 2 [Ver… 2 [A l… 3 [Som… 2 [A l… 6 [6]  
##  7 ESS9…       9 3.1     17.02.…   290 AT [Aus…   0.992   0.721   0.302  0.218  60     1 [Nev…  NA     6 [6]   1 [1]   3 [3]  4 [Not… 2 [Ver… 2 [A l… 3 [Som… 2 [A l… 0 [No …
##  8 ESS9…       9 3.1     17.02.…   301 AT [Aus…   0.310   0.130   0.302  0.0393 30     1 [Nev…  NA     7 [7]   7 [7]   7 [7]  3 [Har… 1 [Not… 1 [Not… 1 [Not… 2 [A l… 5 [5]  
##  9 ESS9…       9 3.1     17.02.…   305 AT [Aus…   1.23    1.77    0.302  0.535  30     5 [Eve… 120     2 [2]   9 [9]   9 [9]  3 [Har… 1 [Not… 1 [Not… 1 [Not… 4 [Ver… 1 [1]  
## 10 ESS9…       9 3.1     17.02.…   400 AT [Aus…   0.459   0.743   0.302  0.224  25     4 [Mos… 360     7 [7]   4 [4]   4 [4]  4 [Not… 2 [Ver… 2 [A l… 2 [Ver… 1 [Not… 3 [3]  
## # … with 49,509 more rows, 550 more variables: trstlgl <dbl+lbl>, trstplc <dbl+lbl>, trstplt <dbl+lbl>, trstprt <dbl+lbl>, trstep <dbl+lbl>, trstun <dbl+lbl>,
## #   vote <dbl+lbl>, prtvtcat <dbl+lbl>, prtvtdbe <dbl+lbl>, prtvtdbg <dbl+lbl>, prtvtgch <dbl+lbl>, prtvtbcy <dbl+lbl>, prtvtecz <dbl+lbl>, prtvede1 <dbl+lbl>,
## #   prtvede2 <dbl+lbl>, prtvtddk <dbl+lbl>, prtvtgee <dbl+lbl>, prtvtees <dbl+lbl>, prtvtdfi <dbl+lbl>, prtvtdfr <dbl+lbl>, prtvtcgb <dbl+lbl>, prtvtahr <dbl+lbl>,
## #   prtvtfhu <dbl+lbl>, prtvtcie <dbl+lbl>, prtvtcis <dbl+lbl>, prtvtcit <dbl+lbl>, prtvblt1 <dbl+lbl>, prtvblt2 <dbl+lbl>, prtvblt3 <dbl+lbl>, prtvtalv <dbl+lbl>,
## #   prtvtme <dbl+lbl>, prtvtgnl <dbl+lbl>, prtvtbno <dbl+lbl>, prtvtdpl <dbl+lbl>, prtvtcpt <dbl+lbl>, prtvtrs <dbl+lbl>, prtvtcse <dbl+lbl>, prtvtfsi <dbl+lbl>,
## #   prtvtdsk <dbl+lbl>, contplt <dbl+lbl>, wrkprty <dbl+lbl>, wrkorg <dbl+lbl>, badge <dbl+lbl>, sgnptit <dbl+lbl>, pbldmn <dbl+lbl>, bctprd <dbl+lbl>, pstplonl <dbl+lbl>,
## #   clsprty <dbl+lbl>, prtcldat <dbl+lbl>, prtcldbe <dbl+lbl>, prtcldbg <dbl+lbl>, prtclgch <dbl+lbl>, prtclbcy <dbl+lbl>, prtclecz <dbl+lbl>, prtclede <dbl+lbl>, …
…
